{
  "swagger": "2.0",
  "info": {},
  "paths": {
    "/pet": {
      "post": {
        "tags": [
          "pet"
        ],
        "summary": "Добавление питомца.",
        "operationId": "petAddRequest",
        "parameters": [
          {
            "name": "Body",
            "in": "body",
            "schema": {
              "$ref": "#/definitions/Pet"
            }
          }
        ],
        "responses": {
          "200": {
            "$ref": "#/responses/petAddResponse"
          }
        }
      }
    },
    "/pet/update": {
      "put": {
        "tags": [
          "pet"
        ],
        "summary": "Обновить питомца.",
        "operationId": "petUpdateRequest",
        "parameters": [
          {
            "name": "Body",
            "in": "body",
            "schema": {
              "$ref": "#/definitions/Pet"
            }
          }
        ],
        "responses": {
          "200": {
            "$ref": "#/responses/petUpdateResponse"
          }
        }
      }
    },
    "/pet/{id}": {
      "get": {
        "tags": [
          "pet"
        ],
        "summary": "Получение питомца по id.",
        "operationId": "petGetByIDRequest",
        "parameters": [
          {
            "type": "string",
            "x-go-name": "ID",
            "description": "ID of an item",
            "name": "id",
            "in": "path",
            "required": true
          }
        ],
        "responses": {
          "200": {
            "$ref": "#/responses/petGetByIDResponse"
          }
        }
      },
      "delete": {
        "tags": [
          "pet"
        ],
        "summary": "Удалить питомца.",
        "operationId": "petDeleteRequest",
        "parameters": [
          {
            "type": "string",
            "x-go-name": "ID",
            "name": "id",
            "in": "path",
            "required": true
          }
        ],
        "responses": {
          "200": {
            "$ref": "#/responses/petDeleteResponse"
          }
        }
      }
    },
    "/pets": {
      "get": {
        "tags": [
          "pet"
        ],
        "summary": "Получение списка питомцев.",
        "operationId": "petGetListRequest",
        "responses": {
          "200": {
            "$ref": "#/responses/petGetListResponse"
          }
        }
      }
    },
    "/store/list": {
      "get": {
        "tags": [
          "store"
        ],
        "summary": "Получить список заказов.",
        "operationId": "storeGetListRequest",
        "responses": {
          "200": {
            "$ref": "#/responses/storeGetListResponse"
          }
        }
      }
    },
    "/store/order": {
      "post": {
        "tags": [
          "store"
        ],
        "summary": "Добавить заказ.",
        "operationId": "storeCreateRequest",
        "parameters": [
          {
            "name": "Body",
            "in": "body",
            "schema": {
              "$ref": "#/definitions/Store"
            }
          }
        ],
        "responses": {
          "200": {
            "$ref": "#/responses/storeCreateResponse"
          }
        }
      }
    },
    "/store/order/{id}": {
      "get": {
        "tags": [
          "store"
        ],
        "summary": "Получить заказ по айди.",
        "operationId": "storeGetByIdRequest",
        "parameters": [
          {
            "type": "string",
            "x-go-name": "ID",
            "name": "id",
            "in": "path",
            "required": true
          }
        ],
        "responses": {
          "200": {
            "$ref": "#/responses/storeGetByIdResponse"
          }
        }
      },
      "delete": {
        "tags": [
          "store"
        ],
        "summary": "Удалить заказ.",
        "operationId": "storeDeleteRequest",
        "parameters": [
          {
            "type": "string",
            "x-go-name": "ID",
            "name": "id",
            "in": "path",
            "required": true
          }
        ],
        "responses": {
          "200": {
            "$ref": "#/responses/storeDeleteResponse"
          }
        }
      }
    },
    "/user": {
      "post": {
        "tags": [
          "user"
        ],
        "summary": "Добавить юзера.",
        "operationId": "userCreateRequest",
        "parameters": [
          {
            "name": "Body",
            "in": "body",
            "schema": {
              "$ref": "#/definitions/User"
            }
          }
        ],
        "responses": {
          "200": {
            "$ref": "#/responses/userCreateResponse"
          }
        }
      }
    },
    "/user/delete": {
      "delete": {
        "tags": [
          "user"
        ],
        "summary": "Удалить юзера.",
        "operationId": "userDeleteRequest",
        "parameters": [
          {
            "name": "Body",
            "in": "body",
            "schema": {
              "$ref": "#/definitions/User"
            }
          }
        ],
        "responses": {
          "200": {
            "$ref": "#/responses/userDeleteResponse"
          }
        }
      }
    },
    "/user/update": {
      "put": {
        "tags": [
          "user"
        ],
        "summary": "Обновить юзера.",
        "operationId": "userUpdateRequest",
        "parameters": [
          {
            "name": "Body",
            "in": "body",
            "schema": {
              "$ref": "#/definitions/User"
            }
          }
        ],
        "responses": {
          "200": {
            "$ref": "#/responses/userUpdateResponse"
          }
        }
      }
    },
    "/user/{username}": {
      "get": {
        "tags": [
          "user"
        ],
        "summary": "Получить юзера по username.",
        "operationId": "userGetByNameRequest",
        "parameters": [
          {
            "type": "string",
            "x-go-name": "Username",
            "name": "username",
            "in": "path",
            "required": true
          }
        ],
        "responses": {
          "200": {
            "$ref": "#/responses/userGetByNameResponse"
          }
        }
      }
    }
  },
  "definitions": {
    "Category": {
      "type": "object",
      "properties": {
        "id": {
          "type": "integer",
          "format": "int64",
          "x-go-name": "ID"
        },
        "name": {
          "type": "string",
          "x-go-name": "Name"
        }
      },
      "x-go-package": "gitlab.com/Vallyenfail/go-kata/module4/webserver/swagger"
    },
    "Pet": {
      "type": "object",
      "properties": {
        "category": {
          "$ref": "#/definitions/Category"
        },
        "id": {
          "type": "integer",
          "format": "int64",
          "x-go-name": "ID"
        },
        "name": {
          "type": "string",
          "x-go-name": "Name"
        },
        "photoUrls": {
          "type": "array",
          "items": {
            "type": "string"
          },
          "x-go-name": "PhotoUrls"
        },
        "status": {
          "type": "string",
          "x-go-name": "Status"
        },
        "tags": {
          "type": "array",
          "items": {
            "$ref": "#/definitions/Category"
          },
          "x-go-name": "Tags"
        }
      },
      "x-go-package": "gitlab.com/Vallyenfail/go-kata/module4/webserver/swagger"
    },
    "Store": {
      "type": "object",
      "properties": {
        "complete": {
          "type": "boolean",
          "x-go-name": "Complete"
        },
        "id": {
          "type": "integer",
          "format": "int64",
          "x-go-name": "ID"
        },
        "petId": {
          "type": "integer",
          "format": "int64",
          "x-go-name": "PetID"
        },
        "quantity": {
          "type": "integer",
          "format": "int64",
          "x-go-name": "Quantity"
        },
        "shipDate": {
          "type": "string",
          "x-go-name": "ShipDate"
        },
        "status": {
          "type": "string",
          "x-go-name": "Status"
        }
      },
      "x-go-package": "gitlab.com/Vallyenfail/go-kata/module4/webserver/swagger"
    },
    "User": {
      "type": "object",
      "properties": {
        "email": {
          "type": "string",
          "x-go-name": "Email"
        },
        "firstName": {
          "type": "string",
          "x-go-name": "FirstName"
        },
        "id": {
          "type": "integer",
          "format": "int64",
          "x-go-name": "ID"
        },
        "lastName": {
          "type": "string",
          "x-go-name": "LastName"
        },
        "password": {
          "type": "string",
          "x-go-name": "Password"
        },
        "phone": {
          "type": "string",
          "x-go-name": "Phone"
        },
        "userStatus": {
          "type": "integer",
          "format": "int64",
          "x-go-name": "UserStatus"
        },
        "username": {
          "type": "string",
          "x-go-name": "Username"
        }
      },
      "x-go-package": "gitlab.com/Vallyenfail/go-kata/module4/webserver/swagger"
    }
  },
  "responses": {
    "petAddResponse": {
      "description": "",
      "schema": {
        "$ref": "#/definitions/Pet"
      }
    },
    "petDeleteResponse": {
      "description": ""
    },
    "petGetByIDResponse": {
      "description": "",
      "schema": {
        "$ref": "#/definitions/Pet"
      }
    },
    "petGetListResponse": {
      "description": "",
      "schema": {
        "type": "array",
        "items": {
          "$ref": "#/definitions/Pet"
        }
      }
    },
    "petUpdateResponse": {
      "description": "",
      "schema": {
        "$ref": "#/definitions/Pet"
      }
    },
    "storeCreateResponse": {
      "description": "",
      "schema": {
        "$ref": "#/definitions/Store"
      }
    },
    "storeDeleteResponse": {
      "description": ""
    },
    "storeGetByIdResponse": {
      "description": "",
      "schema": {
        "$ref": "#/definitions/Store"
      }
    },
    "storeGetListResponse": {
      "description": "",
      "schema": {
        "type": "array",
        "items": {
          "$ref": "#/definitions/Store"
        }
      }
    },
    "userCreateResponse": {
      "description": "",
      "schema": {
        "$ref": "#/definitions/User"
      }
    },
    "userDeleteResponse": {
      "description": ""
    },
    "userGetByNameResponse": {
      "description": "",
      "schema": {
        "$ref": "#/definitions/User"
      }
    },
    "userUpdateResponse": {
      "description": "",
      "schema": {
        "$ref": "#/definitions/User"
      }
    }
  }
}